{
    "legacy_addon_id": "",
    "title": "[AP] DJ Page",
    "description": "Provides a showcase of DJ mixes",
    "version_id": 1000010,
    "version_string": "1.0.0 Alpha",
    "dev": "apathy",
    "dev_url": "",
    "faq_url": "https://fortreeforums.xyz",
    "support_url": "",
    "extra_urls": [],
    "require": [],
    "icon": "icon.png"
}
